-------------------------------------------------------------------------------
Test set: tests.ConsultaPromociones
-------------------------------------------------------------------------------
Tests run: 13, Failures: 2, Errors: 0, Time elapsed: 427.163 sec