<?xml version="1.0" encoding="UTF-8"?>
<testsuite time="427.163" failures="2" tests="13" name="tests.ConsultaPromociones" >
  <testcase time="33.242" classname="tests.ConsultaPromociones" name="Consulta_Promociones-001.ta" >
    <failure message="SoapUI test failed. Following are the test cases that failed:
Test case &apos;Consulta_Promociones-001&apos; from test suite &apos;Suite_Consulta_Promociones&apos; has status : FAILED
" type="org.squashtest.ta.framework.exception.AssertionFailedException" >
Summary
TEST :
[FAIL] # EXECUTE_SOAPUI Consulta_Promociones-soapui-project.xml WITH TEST_SUITE Suite_Consulta_Promociones AND TEST_CASE Consulta_Promociones-001
	[SUCCESS] 	LOAD Consulta_Promociones-soapui-project.xml AS __soapui_script129.file
	[SUCCESS] 	CONVERT __soapui_script129.file TO script.soapui(structured) AS __soapui_script12a.soapui
	[SUCCESS] 	EXECUTE execute WITH __soapui_script12a.soapui USING $(soapui.test.suites:Suite_Consulta_Promociones;soapui.test.cases:Consulta_Promociones-001) AS __exec12b.result
		[SUCCESS] 		$(soapui.test.suites:Suite_Consulta_Promociones;soapui.test.cases:Consulta_Promociones-001) --> {{__tempI63}}
		[SUCCESS] 		EXECUTE execute WITH __soapui_script12a.soapui USING {{__tempI63}} AS __exec12b.result
	[FAIL] 	ASSERT __exec12b.result IS success
org.squashtest.ta.framework.exception.AssertionFailedException: SoapUI test failed. Following are the test cases that failed:
Test case &apos;Consulta_Promociones-001&apos; from test suite &apos;Suite_Consulta_Promociones&apos; has status : FAILED

	at org.squashtest.ta.plugin.soapui.assertions.SoapUIIsSuccess.test(SoapUIIsSuccess.java:89)
	at org.squashtest.ta.backbone.engine.wrapper.UnaryAssertionHandler.test(UnaryAssertionHandler.java:94)
	at org.squashtest.ta.backbone.engine.instructionrunner.DefaultUnaryAssertionRunner.doRun(DefaultUnaryAssertionRunner.java:86)
	at org.squashtest.ta.backbone.engine.instructionrunner.AbstractDefaultInstructionRunner.run(AbstractDefaultInstructionRunner.java:69)
	at org.squashtest.ta.backbone.engine.impl.TestRunnerImpl.runInstruction(TestRunnerImpl.java:203)
	at org.squashtest.ta.backbone.engine.impl.TestRunnerImpl.runInstructionList(TestRunnerImpl.java:148)
	at org.squashtest.ta.backbone.engine.impl.TestRunnerImpl.runMetaInstruction(TestRunnerImpl.java:172)
	at org.squashtest.ta.backbone.engine.impl.TestRunnerImpl.runInstructionList(TestRunnerImpl.java:146)
	at org.squashtest.ta.backbone.engine.impl.TestRunnerImpl.runPhase(TestRunnerImpl.java:136)
	at org.squashtest.ta.backbone.engine.impl.TestRunnerImpl.runTest(TestRunnerImpl.java:107)
	at org.squashtest.ta.backbone.engine.impl.EcosystemRunnerImpl.runAllTests(EcosystemRunnerImpl.java:202)
	at org.squashtest.ta.backbone.engine.impl.EcosystemRunnerImpl.run(EcosystemRunnerImpl.java:104)
	at org.squashtest.ta.backbone.engine.impl.SuiteRunnerImpl.execute(SuiteRunnerImpl.java:68)
	at org.squashtest.ta.backbone.engine.impl.EngineImpl.execute(EngineImpl.java:63)
	at org.squashtest.ta.maven.SquashTAMojo.executeImpl(SquashTAMojo.java:367)
	at org.squashtest.ta.maven.AbstractSquashTaMojo.execution(AbstractSquashTaMojo.java:85)
	at org.squashtest.ta.maven.AbstractBaseSquashTaMojo.execute(AbstractBaseSquashTaMojo.java:147)
	at org.apache.maven.plugin.DefaultBuildPluginManager.executeMojo(DefaultBuildPluginManager.java:134)
	at org.apache.maven.lifecycle.internal.MojoExecutor.execute(MojoExecutor.java:208)
	at org.apache.maven.lifecycle.internal.MojoExecutor.execute(MojoExecutor.java:153)
	at org.apache.maven.lifecycle.internal.MojoExecutor.execute(MojoExecutor.java:145)
	at org.apache.maven.lifecycle.internal.LifecycleModuleBuilder.buildProject(LifecycleModuleBuilder.java:116)
	at org.apache.maven.lifecycle.internal.LifecycleModuleBuilder.buildProject(LifecycleModuleBuilder.java:80)
	at org.apache.maven.lifecycle.internal.builder.singlethreaded.SingleThreadedBuilder.build(SingleThreadedBuilder.java:51)
	at org.apache.maven.lifecycle.internal.LifecycleStarter.execute(LifecycleStarter.java:128)
	at org.apache.maven.DefaultMaven.doExecute(DefaultMaven.java:307)
	at org.apache.maven.DefaultMaven.doExecute(DefaultMaven.java:193)
	at org.apache.maven.DefaultMaven.execute(DefaultMaven.java:106)
	at org.apache.maven.cli.MavenCli.execute(MavenCli.java:862)
	at org.apache.maven.cli.MavenCli.doMain(MavenCli.java:286)
	at org.apache.maven.cli.MavenCli.main(MavenCli.java:197)
	at sun.reflect.NativeMethodAccessorImpl.invoke0(Native Method)
	at sun.reflect.NativeMethodAccessorImpl.invoke(NativeMethodAccessorImpl.java:62)
	at sun.reflect.DelegatingMethodAccessorImpl.invoke(DelegatingMethodAccessorImpl.java:43)
	at java.lang.reflect.Method.invoke(Method.java:498)
	at org.codehaus.plexus.classworlds.launcher.Launcher.launchEnhanced(Launcher.java:289)
	at org.codehaus.plexus.classworlds.launcher.Launcher.launch(Launcher.java:229)
	at org.codehaus.plexus.classworlds.launcher.Launcher.mainWithExitCode(Launcher.java:415)
	at org.codehaus.plexus.classworlds.launcher.Launcher.main(Launcher.java:356)

    </failure>
  </testcase>
  <testcase time="33.086" classname="tests.ConsultaPromociones" name="Consulta_Promociones-002.ta" >
    <failure message="SoapUI test failed. Following are the test cases that failed:
Test case &apos;Consulta_Promociones-002&apos; from test suite &apos;Suite_Consulta_Promociones&apos; has status : FAILED
" type="org.squashtest.ta.framework.exception.AssertionFailedException" >
Summary
TEST :
[FAIL] # EXECUTE_SOAPUI Consulta_Promociones-soapui-project.xml WITH TEST_SUITE Suite_Consulta_Promociones AND TEST_CASE Consulta_Promociones-002
	[SUCCESS] 	LOAD Consulta_Promociones-soapui-project.xml AS __soapui_script12c.file
	[SUCCESS] 	CONVERT __soapui_script12c.file TO script.soapui(structured) AS __soapui_script12d.soapui
	[SUCCESS] 	EXECUTE execute WITH __soapui_script12d.soapui USING $(soapui.test.suites:Suite_Consulta_Promociones;soapui.test.cases:Consulta_Promociones-002) AS __exec12e.result
		[SUCCESS] 		$(soapui.test.suites:Suite_Consulta_Promociones;soapui.test.cases:Consulta_Promociones-002) --> {{__tempI64}}
		[SUCCESS] 		EXECUTE execute WITH __soapui_script12d.soapui USING {{__tempI64}} AS __exec12e.result
	[FAIL] 	ASSERT __exec12e.result IS success
org.squashtest.ta.framework.exception.AssertionFailedException: SoapUI test failed. Following are the test cases that failed:
Test case &apos;Consulta_Promociones-002&apos; from test suite &apos;Suite_Consulta_Promociones&apos; has status : FAILED

	at org.squashtest.ta.plugin.soapui.assertions.SoapUIIsSuccess.test(SoapUIIsSuccess.java:89)
	at org.squashtest.ta.backbone.engine.wrapper.UnaryAssertionHandler.test(UnaryAssertionHandler.java:94)
	at org.squashtest.ta.backbone.engine.instructionrunner.DefaultUnaryAssertionRunner.doRun(DefaultUnaryAssertionRunner.java:86)
	at org.squashtest.ta.backbone.engine.instructionrunner.AbstractDefaultInstructionRunner.run(AbstractDefaultInstructionRunner.java:69)
	at org.squashtest.ta.backbone.engine.impl.TestRunnerImpl.runInstruction(TestRunnerImpl.java:203)
	at org.squashtest.ta.backbone.engine.impl.TestRunnerImpl.runInstructionList(TestRunnerImpl.java:148)
	at org.squashtest.ta.backbone.engine.impl.TestRunnerImpl.runMetaInstruction(TestRunnerImpl.java:172)
	at org.squashtest.ta.backbone.engine.impl.TestRunnerImpl.runInstructionList(TestRunnerImpl.java:146)
	at org.squashtest.ta.backbone.engine.impl.TestRunnerImpl.runPhase(TestRunnerImpl.java:136)
	at org.squashtest.ta.backbone.engine.impl.TestRunnerImpl.runTest(TestRunnerImpl.java:107)
	at org.squashtest.ta.backbone.engine.impl.EcosystemRunnerImpl.runAllTests(EcosystemRunnerImpl.java:202)
	at org.squashtest.ta.backbone.engine.impl.EcosystemRunnerImpl.run(EcosystemRunnerImpl.java:104)
	at org.squashtest.ta.backbone.engine.impl.SuiteRunnerImpl.execute(SuiteRunnerImpl.java:68)
	at org.squashtest.ta.backbone.engine.impl.EngineImpl.execute(EngineImpl.java:63)
	at org.squashtest.ta.maven.SquashTAMojo.executeImpl(SquashTAMojo.java:367)
	at org.squashtest.ta.maven.AbstractSquashTaMojo.execution(AbstractSquashTaMojo.java:85)
	at org.squashtest.ta.maven.AbstractBaseSquashTaMojo.execute(AbstractBaseSquashTaMojo.java:147)
	at org.apache.maven.plugin.DefaultBuildPluginManager.executeMojo(DefaultBuildPluginManager.java:134)
	at org.apache.maven.lifecycle.internal.MojoExecutor.execute(MojoExecutor.java:208)
	at org.apache.maven.lifecycle.internal.MojoExecutor.execute(MojoExecutor.java:153)
	at org.apache.maven.lifecycle.internal.MojoExecutor.execute(MojoExecutor.java:145)
	at org.apache.maven.lifecycle.internal.LifecycleModuleBuilder.buildProject(LifecycleModuleBuilder.java:116)
	at org.apache.maven.lifecycle.internal.LifecycleModuleBuilder.buildProject(LifecycleModuleBuilder.java:80)
	at org.apache.maven.lifecycle.internal.builder.singlethreaded.SingleThreadedBuilder.build(SingleThreadedBuilder.java:51)
	at org.apache.maven.lifecycle.internal.LifecycleStarter.execute(LifecycleStarter.java:128)
	at org.apache.maven.DefaultMaven.doExecute(DefaultMaven.java:307)
	at org.apache.maven.DefaultMaven.doExecute(DefaultMaven.java:193)
	at org.apache.maven.DefaultMaven.execute(DefaultMaven.java:106)
	at org.apache.maven.cli.MavenCli.execute(MavenCli.java:862)
	at org.apache.maven.cli.MavenCli.doMain(MavenCli.java:286)
	at org.apache.maven.cli.MavenCli.main(MavenCli.java:197)
	at sun.reflect.NativeMethodAccessorImpl.invoke0(Native Method)
	at sun.reflect.NativeMethodAccessorImpl.invoke(NativeMethodAccessorImpl.java:62)
	at sun.reflect.DelegatingMethodAccessorImpl.invoke(DelegatingMethodAccessorImpl.java:43)
	at java.lang.reflect.Method.invoke(Method.java:498)
	at org.codehaus.plexus.classworlds.launcher.Launcher.launchEnhanced(Launcher.java:289)
	at org.codehaus.plexus.classworlds.launcher.Launcher.launch(Launcher.java:229)
	at org.codehaus.plexus.classworlds.launcher.Launcher.mainWithExitCode(Launcher.java:415)
	at org.codehaus.plexus.classworlds.launcher.Launcher.main(Launcher.java:356)

    </failure>
  </testcase>
  <testcase time="32.984" classname="tests.ConsultaPromociones" name="Consulta_Promociones-003.ta" />
  <testcase time="33.037" classname="tests.ConsultaPromociones" name="Consulta_Promociones-004.ta" />
  <testcase time="33.447" classname="tests.ConsultaPromociones" name="Consulta_Promociones-005.ta" />
  <testcase time="33.079" classname="tests.ConsultaPromociones" name="Consulta_Promociones-006.ta" />
  <testcase time="33.054" classname="tests.ConsultaPromociones" name="Consulta_Promociones-007.ta" />
  <testcase time="32.417" classname="tests.ConsultaPromociones" name="Consulta_Promociones-008.ta" />
  <testcase time="32.418" classname="tests.ConsultaPromociones" name="Consulta_Promociones-009.ta" />
  <testcase time="32.952" classname="tests.ConsultaPromociones" name="Consulta_Promociones-010.ta" />
  <testcase time="32.672" classname="tests.ConsultaPromociones" name="Consulta_Promociones-011.ta" />
  <testcase time="32.384" classname="tests.ConsultaPromociones" name="Consulta_Promociones-012.ta" />
  <testcase time="32.39" classname="tests.ConsultaPromociones" name="Consulta_Promociones-013.ta" />
</testsuite>